\BOOKMARK [2][-]{subsection.0.1}{Code Repo}{}% 1
\BOOKMARK [1][-]{section.1}{Neural network implementation}{}% 2
\BOOKMARK [2][-]{subsection.1.1}{Perceptron}{section.1}% 3
\BOOKMARK [2][-]{subsection.1.2}{Hidden layers}{section.1}% 4
\BOOKMARK [1][-]{section.2}{Code}{}% 5
