digraph Tree {
node [shape=box] ;
0 [label="X[0] <= 1.5\nentropy = 0.957\nsamples = 899\nvalue = [559, 340]"] ;
1 [label="X[2] <= 0.5\nentropy = 0.974\nsamples = 220\nvalue = [89, 131]"] ;
0 -> 1 [labeldistance=2.5, labelangle=45, headlabel="True"] ;
2 [label="X[1] <= 0.5\nentropy = 0.993\nsamples = 167\nvalue = [75, 92]"] ;
1 -> 2 ;
3 [label="entropy = 1.0\nsamples = 107\nvalue = [53, 54]"] ;
2 -> 3 ;
4 [label="X[1] <= 1.5\nentropy = 0.948\nsamples = 60\nvalue = [22, 38]"] ;
2 -> 4 ;
5 [label="entropy = 0.954\nsamples = 56\nvalue = [21, 35]"] ;
4 -> 5 ;
6 [label="entropy = 0.811\nsamples = 4\nvalue = [1, 3]"] ;
4 -> 6 ;
7 [label="X[2] <= 3.5\nentropy = 0.833\nsamples = 53\nvalue = [14, 39]"] ;
1 -> 7 ;
8 [label="X[2] <= 2.5\nentropy = 0.84\nsamples = 52\nvalue = [14, 38]"] ;
7 -> 8 ;
9 [label="X[1] <= 1.5\nentropy = 0.827\nsamples = 50\nvalue = [13, 37]"] ;
8 -> 9 ;
10 [label="X[2] <= 1.5\nentropy = 0.802\nsamples = 45\nvalue = [11, 34]"] ;
9 -> 10 ;
11 [label="X[1] <= 0.5\nentropy = 0.834\nsamples = 34\nvalue = [9, 25]"] ;
10 -> 11 ;
12 [label="entropy = 0.811\nsamples = 20\nvalue = [5, 15]"] ;
11 -> 12 ;
13 [label="entropy = 0.863\nsamples = 14\nvalue = [4, 10]"] ;
11 -> 13 ;
14 [label="X[1] <= 0.5\nentropy = 0.684\nsamples = 11\nvalue = [2, 9]"] ;
10 -> 14 ;
15 [label="entropy = 0.65\nsamples = 6\nvalue = [1, 5]"] ;
14 -> 15 ;
16 [label="entropy = 0.722\nsamples = 5\nvalue = [1, 4]"] ;
14 -> 16 ;
17 [label="X[1] <= 2.5\nentropy = 0.971\nsamples = 5\nvalue = [2, 3]"] ;
9 -> 17 ;
18 [label="entropy = 1.0\nsamples = 2\nvalue = [1, 1]"] ;
17 -> 18 ;
19 [label="entropy = 0.918\nsamples = 3\nvalue = [1, 2]"] ;
17 -> 19 ;
20 [label="entropy = 1.0\nsamples = 2\nvalue = [1, 1]"] ;
8 -> 20 ;
21 [label="entropy = 0.0\nsamples = 1\nvalue = [0, 1]"] ;
7 -> 21 ;
22 [label="X[2] <= 0.5\nentropy = 0.891\nsamples = 679\nvalue = [470, 209]"] ;
0 -> 22 [labeldistance=2.5, labelangle=-45, headlabel="False"] ;
23 [label="X[1] <= 0.5\nentropy = 0.838\nsamples = 527\nvalue = [386, 141]"] ;
22 -> 23 ;
24 [label="X[0] <= 2.5\nentropy = 0.809\nsamples = 443\nvalue = [333, 110]"] ;
23 -> 24 ;
25 [label="entropy = 0.884\nsamples = 119\nvalue = [83, 36]"] ;
24 -> 25 ;
26 [label="entropy = 0.775\nsamples = 324\nvalue = [250, 74]"] ;
24 -> 26 ;
27 [label="X[1] <= 2.5\nentropy = 0.95\nsamples = 84\nvalue = [53, 31]"] ;
23 -> 27 ;
28 [label="X[1] <= 1.5\nentropy = 0.941\nsamples = 81\nvalue = [52, 29]"] ;
27 -> 28 ;
29 [label="X[0] <= 2.5\nentropy = 0.953\nsamples = 67\nvalue = [42, 25]"] ;
28 -> 29 ;
30 [label="entropy = 0.967\nsamples = 33\nvalue = [20, 13]"] ;
29 -> 30 ;
31 [label="entropy = 0.937\nsamples = 34\nvalue = [22, 12]"] ;
29 -> 31 ;
32 [label="X[0] <= 2.5\nentropy = 0.863\nsamples = 14\nvalue = [10, 4]"] ;
28 -> 32 ;
33 [label="entropy = 0.0\nsamples = 3\nvalue = [3, 0]"] ;
32 -> 33 ;
34 [label="entropy = 0.946\nsamples = 11\nvalue = [7, 4]"] ;
32 -> 34 ;
35 [label="X[0] <= 2.5\nentropy = 0.918\nsamples = 3\nvalue = [1, 2]"] ;
27 -> 35 ;
36 [label="entropy = 0.0\nsamples = 1\nvalue = [0, 1]"] ;
35 -> 36 ;
37 [label="entropy = 1.0\nsamples = 2\nvalue = [1, 1]"] ;
35 -> 37 ;
38 [label="X[1] <= 2.5\nentropy = 0.992\nsamples = 152\nvalue = [84, 68]"] ;
22 -> 38 ;
39 [label="X[0] <= 2.5\nentropy = 0.997\nsamples = 120\nvalue = [56, 64]"] ;
38 -> 39 ;
40 [label="X[2] <= 1.5\nentropy = 0.854\nsamples = 43\nvalue = [12, 31]"] ;
39 -> 40 ;
41 [label="X[1] <= 1.5\nentropy = 0.94\nsamples = 28\nvalue = [10, 18]"] ;
40 -> 41 ;
42 [label="X[1] <= 0.5\nentropy = 0.966\nsamples = 23\nvalue = [9, 14]"] ;
41 -> 42 ;
43 [label="entropy = 0.918\nsamples = 6\nvalue = [2, 4]"] ;
42 -> 43 ;
44 [label="entropy = 0.977\nsamples = 17\nvalue = [7, 10]"] ;
42 -> 44 ;
45 [label="entropy = 0.722\nsamples = 5\nvalue = [1, 4]"] ;
41 -> 45 ;
46 [label="X[2] <= 2.5\nentropy = 0.567\nsamples = 15\nvalue = [2, 13]"] ;
40 -> 46 ;
47 [label="X[1] <= 0.5\nentropy = 0.619\nsamples = 13\nvalue = [2, 11]"] ;
46 -> 47 ;
48 [label="entropy = 0.65\nsamples = 6\nvalue = [1, 5]"] ;
47 -> 48 ;
49 [label="entropy = 0.592\nsamples = 7\nvalue = [1, 6]"] ;
47 -> 49 ;
50 [label="entropy = 0.0\nsamples = 2\nvalue = [0, 2]"] ;
46 -> 50 ;
51 [label="X[2] <= 2.5\nentropy = 0.985\nsamples = 77\nvalue = [44, 33]"] ;
39 -> 51 ;
52 [label="X[2] <= 1.5\nentropy = 0.998\nsamples = 61\nvalue = [32, 29]"] ;
51 -> 52 ;
53 [label="X[1] <= 1.5\nentropy = 0.992\nsamples = 38\nvalue = [21, 17]"] ;
52 -> 53 ;
54 [label="X[1] <= 0.5\nentropy = 0.98\nsamples = 36\nvalue = [21, 15]"] ;
53 -> 54 ;
55 [label="entropy = 0.918\nsamples = 12\nvalue = [8, 4]"] ;
54 -> 55 ;
56 [label="entropy = 0.995\nsamples = 24\nvalue = [13, 11]"] ;
54 -> 56 ;
57 [label="entropy = 0.0\nsamples = 2\nvalue = [0, 2]"] ;
53 -> 57 ;
58 [label="X[1] <= 1.5\nentropy = 0.999\nsamples = 23\nvalue = [11, 12]"] ;
52 -> 58 ;
59 [label="X[1] <= 0.5\nentropy = 0.971\nsamples = 20\nvalue = [8, 12]"] ;
58 -> 59 ;
60 [label="entropy = 0.961\nsamples = 13\nvalue = [5, 8]"] ;
59 -> 60 ;
61 [label="entropy = 0.985\nsamples = 7\nvalue = [3, 4]"] ;
59 -> 61 ;
62 [label="entropy = 0.0\nsamples = 3\nvalue = [3, 0]"] ;
58 -> 62 ;
63 [label="X[1] <= 0.5\nentropy = 0.811\nsamples = 16\nvalue = [12, 4]"] ;
51 -> 63 ;
64 [label="X[2] <= 4.5\nentropy = 0.971\nsamples = 5\nvalue = [3, 2]"] ;
63 -> 64 ;
65 [label="X[2] <= 3.5\nentropy = 0.918\nsamples = 3\nvalue = [1, 2]"] ;
64 -> 65 ;
66 [label="entropy = 0.0\nsamples = 1\nvalue = [0, 1]"] ;
65 -> 66 ;
67 [label="entropy = 1.0\nsamples = 2\nvalue = [1, 1]"] ;
65 -> 67 ;
68 [label="entropy = 0.0\nsamples = 2\nvalue = [2, 0]"] ;
64 -> 68 ;
69 [label="X[2] <= 4.5\nentropy = 0.684\nsamples = 11\nvalue = [9, 2]"] ;
63 -> 69 ;
70 [label="entropy = 0.0\nsamples = 4\nvalue = [4, 0]"] ;
69 -> 70 ;
71 [label="X[2] <= 7.5\nentropy = 0.863\nsamples = 7\nvalue = [5, 2]"] ;
69 -> 71 ;
72 [label="X[2] <= 5.5\nentropy = 0.722\nsamples = 5\nvalue = [4, 1]"] ;
71 -> 72 ;
73 [label="entropy = 0.811\nsamples = 4\nvalue = [3, 1]"] ;
72 -> 73 ;
74 [label="entropy = 0.0\nsamples = 1\nvalue = [1, 0]"] ;
72 -> 74 ;
75 [label="entropy = 1.0\nsamples = 2\nvalue = [1, 1]"] ;
71 -> 75 ;
76 [label="X[2] <= 1.5\nentropy = 0.544\nsamples = 32\nvalue = [28, 4]"] ;
38 -> 76 ;
77 [label="entropy = 0.0\nsamples = 12\nvalue = [12, 0]"] ;
76 -> 77 ;
78 [label="X[1] <= 6.5\nentropy = 0.722\nsamples = 20\nvalue = [16, 4]"] ;
76 -> 78 ;
79 [label="X[1] <= 3.5\nentropy = 0.837\nsamples = 15\nvalue = [11, 4]"] ;
78 -> 79 ;
80 [label="entropy = 0.0\nsamples = 2\nvalue = [2, 0]"] ;
79 -> 80 ;
81 [label="X[1] <= 4.5\nentropy = 0.89\nsamples = 13\nvalue = [9, 4]"] ;
79 -> 81 ;
82 [label="entropy = 0.918\nsamples = 9\nvalue = [6, 3]"] ;
81 -> 82 ;
83 [label="entropy = 0.811\nsamples = 4\nvalue = [3, 1]"] ;
81 -> 83 ;
84 [label="entropy = 0.0\nsamples = 5\nvalue = [5, 0]"] ;
78 -> 84 ;
}