\relax 
\providecommand\hyper@newdestlabel[2]{}
\@nameuse{bbl@beforestart}
\providecommand\HyperFirstAtBeginDocument{\AtBeginDocument}
\HyperFirstAtBeginDocument{\ifx\hyper@anchor\@undefined
\global\let\oldcontentsline\contentsline
\gdef\contentsline#1#2#3#4{\oldcontentsline{#1}{#2}{#3}}
\global\let\oldnewlabel\newlabel
\gdef\newlabel#1#2{\newlabelxx{#1}#2}
\gdef\newlabelxx#1#2#3#4#5#6{\oldnewlabel{#1}{{#2}{#3}}}
\AtEndDocument{\ifx\hyper@anchor\@undefined
\let\contentsline\oldcontentsline
\let\newlabel\oldnewlabel
\fi}
\fi}
\global\let\hyper@last\relax 
\gdef\HyperFirstAtBeginDocument#1{#1}
\providecommand\HyField@AuxAddToFields[1]{}
\providecommand\HyField@AuxAddToCoFields[2]{}
\babel@aux{nil}{}
\@writefile{toc}{\contentsline {subsection}{\numberline {0.1}Code Repo}{1}{subsection.0.1}\protected@file@percent }
\@writefile{toc}{\contentsline {section}{\numberline {1}Buying a Book?}{1}{section.1}\protected@file@percent }
\@writefile{lot}{\contentsline {table}{\numberline {1}{\ignorespaces Conditional probability table for passing an exam based on buying the textbook given mastering subject\relax }}{1}{table.caption.1}\protected@file@percent }
\providecommand*\caption@xref[2]{\@setref\relax\@undefined{#1}}
\newlabel{tab:table1}{{1}{1}{Conditional probability table for passing an exam based on buying the textbook given mastering subject\relax }{table.caption.1}{}}
\@writefile{lot}{\contentsline {table}{\numberline {2}{\ignorespaces Relationship between having the book(B) and mastering(M) expressed as M given B\relax }}{2}{table.caption.2}\protected@file@percent }
\newlabel{tab:table1}{{2}{2}{Relationship between having the book(B) and mastering(M) expressed as M given B\relax }{table.caption.2}{}}
\@writefile{lot}{\contentsline {table}{\numberline {3}{\ignorespaces Utility of buying a book\relax }}{2}{table.caption.3}\protected@file@percent }
\newlabel{tab:table1}{{3}{2}{Utility of buying a book\relax }{table.caption.3}{}}
\@writefile{lot}{\contentsline {table}{\numberline {4}{\ignorespaces Utility of passing exam\relax }}{2}{table.caption.4}\protected@file@percent }
\newlabel{tab:table1}{{4}{2}{Utility of passing exam\relax }{table.caption.4}{}}
\@writefile{lot}{\contentsline {table}{\numberline {5}{\ignorespaces Utility scores\relax }}{3}{table.caption.5}\protected@file@percent }
\newlabel{tab:table1}{{5}{3}{Utility scores\relax }{table.caption.5}{}}
\@writefile{lot}{\contentsline {table}{\numberline {6}{\ignorespaces Probability distribution adjusted for effect of book on mastering.\relax }}{3}{table.caption.6}\protected@file@percent }
\newlabel{tab:table1}{{6}{3}{Probability distribution adjusted for effect of book on mastering.\relax }{table.caption.6}{}}
\@writefile{lot}{\contentsline {table}{\numberline {7}{\ignorespaces Utility as U1 + U2 applied\relax }}{3}{table.caption.7}\protected@file@percent }
\newlabel{tab:table1}{{7}{3}{Utility as U1 + U2 applied\relax }{table.caption.7}{}}
\@writefile{lot}{\contentsline {table}{\numberline {8}{\ignorespaces Utility scores adjusted for effect of book\relax }}{3}{table.caption.8}\protected@file@percent }
\newlabel{tab:table1}{{8}{3}{Utility scores adjusted for effect of book\relax }{table.caption.8}{}}
\@writefile{lot}{\contentsline {table}{\numberline {9}{\ignorespaces Utility scores adjusted for effect of book. Normalized across category book. Do separate judgements given B=true and B=false.\relax }}{4}{table.caption.9}\protected@file@percent }
\newlabel{tab:table1}{{9}{4}{Utility scores adjusted for effect of book. Normalized across category book. Do separate judgements given B=true and B=false.\relax }{table.caption.9}{}}
\@writefile{lot}{\contentsline {table}{\numberline {10}{\ignorespaces Utility scores adjusted for effect of book. Normalized over all categories. Do a judgement across all category options.\relax }}{4}{table.caption.10}\protected@file@percent }
\newlabel{tab:table1}{{10}{4}{Utility scores adjusted for effect of book. Normalized over all categories. Do a judgement across all category options.\relax }{table.caption.10}{}}
\@writefile{toc}{\contentsline {section}{\numberline {2}Modelling own Project}{4}{section.2}\protected@file@percent }
\@writefile{toc}{\contentsline {subsection}{\numberline {2.1}Description}{4}{subsection.2.1}\protected@file@percent }
\@writefile{toc}{\contentsline {subsection}{\numberline {2.2}Decision Nodes}{5}{subsection.2.2}\protected@file@percent }
\@writefile{toc}{\contentsline {subsection}{\numberline {2.3}Random Variables (chance nodes)}{5}{subsection.2.3}\protected@file@percent }
\@writefile{lot}{\contentsline {table}{\numberline {11}{\ignorespaces Prior Probability of Harassment\relax }}{6}{table.caption.12}\protected@file@percent }
\newlabel{tab:table1}{{11}{6}{Prior Probability of Harassment\relax }{table.caption.12}{}}
\@writefile{lot}{\contentsline {table}{\numberline {12}{\ignorespaces Prior Probability of Gossip\relax }}{6}{table.caption.13}\protected@file@percent }
\newlabel{tab:table1}{{12}{6}{Prior Probability of Gossip\relax }{table.caption.13}{}}
\@writefile{lot}{\contentsline {table}{\numberline {13}{\ignorespaces Sensor model for Information given hidden variable Harassment\relax }}{6}{table.caption.14}\protected@file@percent }
\newlabel{tab:table1}{{13}{6}{Sensor model for Information given hidden variable Harassment\relax }{table.caption.14}{}}
\@writefile{lot}{\contentsline {table}{\numberline {14}{\ignorespaces Sensor model for Information given hidden variable Gossip\relax }}{6}{table.caption.15}\protected@file@percent }
\newlabel{tab:table1}{{14}{6}{Sensor model for Information given hidden variable Gossip\relax }{table.caption.15}{}}
\@writefile{lot}{\contentsline {table}{\numberline {15}{\ignorespaces The conditional probability table for Intervension by Harassment given NPC/Teacher asking a question (gaining new information)\relax }}{7}{table.caption.16}\protected@file@percent }
\newlabel{tab:table1}{{15}{7}{The conditional probability table for Intervension by Harassment given NPC/Teacher asking a question (gaining new information)\relax }{table.caption.16}{}}
\@writefile{toc}{\contentsline {subsection}{\numberline {2.4}Utility Nodes}{7}{subsection.2.4}\protected@file@percent }
\@writefile{lot}{\contentsline {table}{\numberline {16}{\ignorespaces Cost of Information\relax }}{7}{table.caption.17}\protected@file@percent }
\newlabel{tab:table1}{{16}{7}{Cost of Information\relax }{table.caption.17}{}}
\@writefile{lot}{\contentsline {table}{\numberline {17}{\ignorespaces Utility of Wellbeing\relax }}{7}{table.caption.18}\protected@file@percent }
\newlabel{tab:table1}{{17}{7}{Utility of Wellbeing\relax }{table.caption.18}{}}
\@writefile{lot}{\contentsline {table}{\numberline {18}{\ignorespaces Cost of Police\relax }}{7}{table.caption.19}\protected@file@percent }
\newlabel{tab:table1}{{18}{7}{Cost of Police\relax }{table.caption.19}{}}
\@writefile{lot}{\contentsline {table}{\numberline {19}{\ignorespaces Total Utility Weighted\relax }}{7}{table.caption.20}\protected@file@percent }
\newlabel{tab:table1}{{19}{7}{Total Utility Weighted\relax }{table.caption.20}{}}
\@writefile{toc}{\contentsline {section}{\numberline {3}Displaying Decision Model}{8}{section.3}\protected@file@percent }
