\relax 
\providecommand\hyper@newdestlabel[2]{}
\@nameuse{bbl@beforestart}
\catcode `"\active 
\providecommand\HyperFirstAtBeginDocument{\AtBeginDocument}
\HyperFirstAtBeginDocument{\ifx\hyper@anchor\@undefined
\global\let\oldcontentsline\contentsline
\gdef\contentsline#1#2#3#4{\oldcontentsline{#1}{#2}{#3}}
\global\let\oldnewlabel\newlabel
\gdef\newlabel#1#2{\newlabelxx{#1}#2}
\gdef\newlabelxx#1#2#3#4#5#6{\oldnewlabel{#1}{{#2}{#3}}}
\AtEndDocument{\ifx\hyper@anchor\@undefined
\let\contentsline\oldcontentsline
\let\newlabel\oldnewlabel
\fi}
\fi}
\global\let\hyper@last\relax 
\gdef\HyperFirstAtBeginDocument#1{#1}
\providecommand\HyField@AuxAddToFields[1]{}
\providecommand\HyField@AuxAddToCoFields[2]{}
\babel@aux{norsk}{}
\@writefile{toc}{\contentsline {subsection}{\numberline {0.1}Code Repo}{1}{subsection.0.1}\protected@file@percent }
\@writefile{toc}{\contentsline {section}{\numberline {1}Hidden Markov}{1}{section.1}\protected@file@percent }
\@writefile{toc}{\contentsline {subsection}{\numberline {1.1}Probability Tables}{1}{subsection.1.1}\protected@file@percent }
\@writefile{lot}{\contentsline {table}{\numberline {1}{\ignorespaces Prior Probability of Fish (P(X0))\relax }}{1}{table.caption.1}\protected@file@percent }
\providecommand*\caption@xref[2]{\@setref\relax\@undefined{#1}}
\newlabel{tab:table1}{{1}{1}{Prior Probability of Fish (P(X0))\relax }{table.caption.1}{}}
\@writefile{lot}{\contentsline {table}{\numberline {2}{\ignorespaces Probability Table for Bird given the hidden variable Fish. This represent the Sensor-model, where observation of Bird is a sensor for the presence of Fish.\relax }}{1}{table.caption.2}\protected@file@percent }
\newlabel{tab:table1}{{2}{1}{Probability Table for Bird given the hidden variable Fish. This represent the Sensor-model, where observation of Bird is a sensor for the presence of Fish.\relax }{table.caption.2}{}}
\@writefile{lot}{\contentsline {table}{\numberline {3}{\ignorespaces Observation matrix for evidence = Birds\relax }}{2}{table.caption.3}\protected@file@percent }
\newlabel{tab:table1}{{3}{2}{Observation matrix for evidence = Birds\relax }{table.caption.3}{}}
\@writefile{lot}{\contentsline {table}{\numberline {4}{\ignorespaces Transition Table (Xt|Xt-1)\relax }}{2}{table.caption.4}\protected@file@percent }
\newlabel{tab:table1}{{4}{2}{Transition Table (Xt|Xt-1)\relax }{table.caption.4}{}}
\@writefile{lot}{\contentsline {table}{\numberline {5}{\ignorespaces Evidence Table\relax }}{2}{table.caption.5}\protected@file@percent }
\newlabel{tab:table1}{{5}{2}{Evidence Table\relax }{table.caption.5}{}}
\@writefile{toc}{\contentsline {subsection}{\numberline {1.2}Compute Equation (1)}{2}{subsection.1.2}\protected@file@percent }
\@writefile{toc}{\contentsline {subsection}{\numberline {1.3}Compute Equation (2)}{4}{subsection.1.3}\protected@file@percent }
\@writefile{toc}{\contentsline {subsection}{\numberline {1.4}Compute Equation (3)}{7}{subsection.1.4}\protected@file@percent }
\@writefile{toc}{\contentsline {subsection}{\numberline {1.5}Compute Equation (4)}{7}{subsection.1.5}\protected@file@percent }
\@writefile{toc}{\contentsline {section}{\numberline {2}Dynamic Bayesian Network}{8}{section.2}\protected@file@percent }
\@writefile{toc}{\contentsline {subsection}{\numberline {2.1}Probability Tables for the Model}{8}{subsection.2.1}\protected@file@percent }
\@writefile{lot}{\contentsline {table}{\numberline {6}{\ignorespaces Prior Probability of Animals nearby\relax }}{8}{table.caption.6}\protected@file@percent }
\newlabel{tab:table1}{{6}{8}{Prior Probability of Animals nearby\relax }{table.caption.6}{}}
\@writefile{lot}{\contentsline {table}{\numberline {7}{\ignorespaces Probability Table for Animal Tracks given the hidden variable Animals (nearby). This represent the Sensor-model, where observation of Animal Tracks is a "sensor" for the presence of Animals (nearby). All present or not at time t.\relax }}{8}{table.caption.7}\protected@file@percent }
\newlabel{tab:table1}{{7}{8}{Probability Table for Animal Tracks given the hidden variable Animals (nearby). This represent the Sensor-model, where observation of Animal Tracks is a "sensor" for the presence of Animals (nearby). All present or not at time t.\relax }{table.caption.7}{}}
\@writefile{lot}{\contentsline {table}{\numberline {8}{\ignorespaces Observation matrix for evidence = Animal Tracks\relax }}{8}{table.caption.8}\protected@file@percent }
\newlabel{tab:table1}{{8}{8}{Observation matrix for evidence = Animal Tracks\relax }{table.caption.8}{}}
\@writefile{lot}{\contentsline {table}{\numberline {9}{\ignorespaces Probability Table for Food Gone given the hidden variable Animals (nearby). This represent the Sensor-model, where observation of Food Gone is a "sensor" for the presence of Animals (nearby). All present or not at time t.\relax }}{9}{table.caption.9}\protected@file@percent }
\newlabel{tab:table1}{{9}{9}{Probability Table for Food Gone given the hidden variable Animals (nearby). This represent the Sensor-model, where observation of Food Gone is a "sensor" for the presence of Animals (nearby). All present or not at time t.\relax }{table.caption.9}{}}
\@writefile{lot}{\contentsline {table}{\numberline {10}{\ignorespaces Observation matrix for evidence = Food Gone\relax }}{9}{table.caption.10}\protected@file@percent }
\newlabel{tab:table1}{{10}{9}{Observation matrix for evidence = Food Gone\relax }{table.caption.10}{}}
\@writefile{lot}{\contentsline {table}{\numberline {11}{\ignorespaces Transition Table (P(Xt|Xt-1))\relax }}{9}{table.caption.11}\protected@file@percent }
\newlabel{tab:table1}{{11}{9}{Transition Table (P(Xt|Xt-1))\relax }{table.caption.11}{}}
\@writefile{lot}{\contentsline {table}{\numberline {12}{\ignorespaces Evidence Table\relax }}{9}{table.caption.12}\protected@file@percent }
\newlabel{tab:table1}{{12}{9}{Evidence Table\relax }{table.caption.12}{}}
\@writefile{toc}{\contentsline {subsection}{\numberline {2.2}Compute Equation (5)}{9}{subsection.2.2}\protected@file@percent }
\@writefile{toc}{\contentsline {subsection}{\numberline {2.3}Compute Equation (6)}{10}{subsection.2.3}\protected@file@percent }
\@writefile{toc}{\contentsline {subsection}{\numberline {2.4}Compute Equation (7)}{11}{subsection.2.4}\protected@file@percent }
\@writefile{toc}{\contentsline {subsection}{\numberline {2.5}Compute Equation (6)}{11}{subsection.2.5}\protected@file@percent }
\@writefile{toc}{\contentsline {subsection}{\numberline {2.6}Functions in Code}{12}{subsection.2.6}\protected@file@percent }
